[2018-07-24 21:16:07] 
[2018-07-24 21:17:52] 
[2018-07-24 21:18:42] 
[2018-07-25 16:25:01] 
[2018-07-25 16:31:05] 
[2018-07-25 16:31:30] 
[2018-07-25 16:39:12] 
[2018-07-25 16:39:20] 
[2018-07-25 16:40:33] 
[2018-07-25 16:41:25] 
[2018-07-25 17:15:13] 
[2018-07-25 17:20:43] 
[2018-07-25 17:21:06] 
[2018-07-25 17:21:22] 
[2018-07-25 17:22:01] 
[2018-07-25 17:22:38] 
[2018-07-25 17:22:48] 
[2018-07-25 17:23:08] 
[2018-07-25 17:23:24] 
[2018-07-25 17:23:36] 
[2018-07-25 17:23:55] 
[2018-07-25 17:24:15] 
[2018-08-10 17:04:38] 
[2018-08-10 17:04:47] 
[2018-08-10 17:05:04] 
